Replication of Cheynel and Liu-Watts (2020)
…
Simulating true cost and disclosure

Each firm has 40 periods.

x is the private inforamtion about firm value, which is iid across firms and over time.

# firm
df_firm <- tibble(
  firm = rep(1:N, each = time),
  time = rep(1:time, times = N),
  x    = rnorm(N*time)
)
df_firm

# A tibble: 7,200,000 x 3
    firm  time      x
   <int> <int>  <dbl>
 1     1     1  0.377
 2     1     2  0.302
 3     1     3 -1.10 
 4     1     4 -1.13 
 5     1     5 -2.80 
 6     1     6  0.721
 7     1     7  0.939
 8     1     8 -0.229
 9     1     9  1.76 
10     1    10  0.117
# ... with 7,199,990 more rows

The cost of disclosure \(c\) is assumed to vary across firms but constant over period in each firm.

df_firm <- df_firm %>% 
  group_by(firm) %>% 
  mutate(c = sample(c, 1)) %>% 
  ungroup()
df_firm

# A tibble: 7,200,000 x 4
    firm  time      x     c
   <int> <int>  <dbl> <dbl>
 1     1     1  0.377   0.8
 2     1     2  0.302   0.8
 3     1     3 -1.10    0.8
 4     1     4 -1.13    0.8
 5     1     5 -2.80    0.8
 6     1     6  0.721   0.8
 7     1     7  0.939   0.8
 8     1     8 -0.229   0.8
 9     1     9  1.76    0.8
10     1    10  0.117   0.8
# ... with 7,199,990 more rows
…
  return(opt_res$par)
  
}
<bytecode: 0x00000000258e5e50>
<environment: namespace:CheynelLiuWatts>

df_firm <- df_firm %>% 
  group_by(firm) %>% 
  mutate(tau = compute_threshold(x, c)) %>% 
  ungroup()
df_firm  

# A tibble: 7,200,000 x 5
    firm  time      x     c    tau
   <int> <int>  <dbl> <dbl>  <dbl>
 1     1     1  0.377   0.8 -0.744
 2     1     2  0.302   0.8 -0.744
 3     1     3 -1.10    0.8 -0.744
 4     1     4 -1.13    0.8 -0.744
 5     1     5 -2.80    0.8 -0.744
 6     1     6  0.721   0.8 -0.744
 7     1     7  0.939   0.8 -0.744
 8     1     8 -0.229   0.8 -0.744
 9     1     9  1.76    0.8 -0.744
10     1    10  0.117   0.8 -0.744
# ... with 7,199,990 more rows

If \(x>=\tau\), then firms disclose their \(x\), and if not, they do not disclose.

df_firm <- df_firm %>% 
  mutate(disclosure = if_else(x >= tau, x, NA_real_))
df_firm

# A tibble: 7,200,000 x 6
    firm  time      x     c    tau disclosure
   <int> <int>  <dbl> <dbl>  <dbl>      <dbl>
 1     1     1  0.377   0.8 -0.744      0.377
 2     1     2  0.302   0.8 -0.744      0.302
 3     1     3 -1.10    0.8 -0.744     NA    
 4     1     4 -1.13    0.8 -0.744     NA    
 5     1     5 -2.80    0.8 -0.744     NA    
 6     1     6  0.721   0.8 -0.744      0.721
 7     1     7  0.939   0.8 -0.744      0.939
 8     1     8 -0.229   0.8 -0.744     -0.229
 9     1     9  1.76    0.8 -0.744      1.76 
10     1    10  0.117   0.8 -0.744      0.117
# ... with 7,199,990 more rows
…
  c_BBT <- df_cost %>% pull(c_BBT) 
  
  return(c_BBT)
}
<bytecode: 0x0000000005cb1578>
<environment: namespace:CheynelLiuWatts>

df_cost <- df_firm %>% 
  mutate(c_NP  = estimate_c_NP(.),
         c_BBT = estimate_c_BBT(.))
df_cost

# A tibble: 6,597,320 x 8
    firm  time      x     c    tau disclosure  c_NP c_BBT
   <int> <int>  <dbl> <dbl>  <dbl>      <dbl> <dbl> <dbl>
 1     1     1  0.377   0.8 -0.744      0.377  1.91 0.558
 2     1     2  0.302   0.8 -0.744      0.302  1.91 0.558
 3     1     3 -1.10    0.8 -0.744     NA      1.91 0.558
 4     1     4 -1.13    0.8 -0.744     NA      1.91 0.558
 5     1     5 -2.80    0.8 -0.744     NA      1.91 0.558
 6     1     6  0.721   0.8 -0.744      0.721  1.91 0.558
 7     1     7  0.939   0.8 -0.744      0.939  1.91 0.558
 8     1     8 -0.229   0.8 -0.744     -0.229  1.91 0.558
 9     1     9  1.76    0.8 -0.744      1.76   1.91 0.558
10     1    10  0.117   0.8 -0.744      0.117  1.91 0.558
# ... with 6,597,310 more rows
…
