Replication of Bird, Karolyi, and Ruchti (2019, JAE)
…
  return(df_firm_utility)
}
<bytecode: 0x0000000025be5540>
<environment: namespace:NumbersGame>

df_firm_utility <- compute_optimal_manipulation_simulated(df_firm, theta, S = N)
df_firm_utility

# A tibble: 100,000 x 6
    firm     e    beta m_opt eps_after     R
   <int> <int>   <dbl> <dbl>     <dbl> <dbl>
 1     1    -5 0.00104    13         2    10
 2     2     3 0.0478      0         0     3
 3     3     4 0.402       0         0     4
 4     4    -3 0.241       0         0    -3
 5     5    -1 0.104       1         0     0
 6     6     0 0.129       0         0     0
 7     7    -1 0.748       1         1     1
 8     8     3 0.575       0         0     3
 9     9     0 0.174       0         0     0
10    10     4 0.988       0         0     4
# ... with 99,990 more rows
…
Estimation

Regarding the simulated data as observed data, I recover the parameter \(\theta\) by BKR method.

See SummaryBKR.pdf for the step-by-step estimation procedure.

df_observed <- df_firm_utility %>%      # df_firm_utility is the 'true' data
  select(firm, R)                       # Discard the information that cannot be observed (by researcher)
df_observed

# A tibble: 100,000 x 2
    firm     R
   <int> <dbl>
 1     1    10
 2     2     3
 3     3     4
 4     4    -3
 5     5     0
 6     6     0
 7     7     1
 8     8     3
 9     9     0
10    10     4
# ... with 99,990 more rows
…
  # merge them
  df_pi = bind_rows(df_pi_unobserved, df_pi_observed) %>% 
    arrange(bin) %>% 
    rename(count_R = count)    # pi is observed (reported) surprise
  
  return(df_pi)
}
<bytecode: 0x0000000027099678>
<environment: namespace:NumbersGame>

df_pi <- compute_pi(df_observed)
df_pi

# A tibble: 41 x 2
     bin count_R
   <dbl>   <dbl>
 1   -20       2
 2   -19       9
 3   -18      10
 4   -17      21
 5   -16      60
 6   -15      90
 7   -14     173
 8   -13     277
 9   -12     447
10   -11     706
# ... with 31 more rows
…
  df_x <- tibble(
    bin = -20:20,
    count_e = as.numeric(solve(P) %*% df_pi$count_R)    # e is latent earnings distribution
  )
  
  return(df_x)
  
}
<bytecode: 0x0000000029243738>
<environment: namespace:NumbersGame>

df_x <- compute_x(P, df_pi)
df_x

# A tibble: 41 x 2
     bin count_e
   <int>   <dbl>
 1   -20    2.00
 2   -19    9.03
 3   -18   10.0 
 4   -17   21.0 
 5   -16   60.2 
 6   -15   90.3 
 7   -14  173.  
 8   -13  278.  
 9   -12  448.  
10   -11  710.  
# ... with 31 more rows
…
